{
	"info": {
		"_postman_id": "be798228-032d-40e3-bbfe-e587a98c645c",
		"name": "Larvel+Vue Elaniin",
		"schema": "https://schema.getpostman.com/json/collection/v2.1.0/collection.json"
	},
	"item": [
		{
			"name": "Auth",
			"item": [
				{
					"name": "User Profile",
					"request": {
						"method": "GET",
						"header": [],
						"url": {
							"raw": "{{host}}/api/v1/auth/user",
							"host": [
								"{{host}}"
							],
							"path": [
								"api",
								"v1",
								"auth",
								"user"
							]
						}
					},
					"response": []
				},
				{
					"name": "Session Active",
					"request": {
						"method": "GET",
						"header": [],
						"url": {
							"raw": "{{host}}/api/v1/auth/session",
							"host": [
								"{{host}}"
							],
							"path": [
								"api",
								"v1",
								"auth",
								"session"
							]
						}
					},
					"response": []
				},
				{
					"name": "Sing In",
					"event": [
						{
							"listen": "prerequest",
							"script": {
								"exec": [
									""
								],
								"type": "text/javascript"
							}
						}
					],
					"request": {
						"method": "POST",
						"header": [],
						"body": {
							"mode": "raw",
							"raw": "{\r\n    \"email\" : \"admin@admin.com\",\r\n    \"password\": \"password\",\r\n    \"remember\": false\r\n}",
							"options": {
								"raw": {
									"language": "json"
								}
							}
						},
						"url": {
							"raw": "{{host}}/api/v1/auth/signin",
							"host": [
								"{{host}}"
							],
							"path": [
								"api",
								"v1",
								"auth",
								"signin"
							]
						}
					},
					"response": []
				},
				{
					"name": "Sign Up",
					"request": {
						"method": "POST",
						"header": [],
						"body": {
							"mode": "raw",
							"raw": "{\r\n    \"name\" : \"Mr User\",\r\n    \"username\" : \"mruser\",\r\n    \"phone\" : \"+503 7000-0000\",\r\n    \"email\" : \"admin2@admin.com\",\r\n    \"birthday\" : \"2021-05-08\",\r\n    \"password\": \"password\",\r\n    \"password_confirmation\": \"password\"\r\n}",
							"options": {
								"raw": {
									"language": "json"
								}
							}
						},
						"url": {
							"raw": "{{host}}/api/v1/auth/signup",
							"host": [
								"{{host}}"
							],
							"path": [
								"api",
								"v1",
								"auth",
								"signup"
							]
						}
					},
					"response": []
				},
				{
					"name": "Sign Out",
					"request": {
						"method": "POST",
						"header": [],
						"url": {
							"raw": "{{host}}/api/v1/auth/signout",
							"host": [
								"{{host}}"
							],
							"path": [
								"api",
								"v1",
								"auth",
								"signout"
							]
						}
					},
					"response": []
				},
				{
					"name": "Refresh Token",
					"request": {
						"method": "POST",
						"header": [],
						"body": {
							"mode": "raw",
							"raw": "",
							"options": {
								"raw": {
									"language": "json"
								}
							}
						},
						"url": {
							"raw": "{{host}}/api/v1/auth/refresh",
							"host": [
								"{{host}}"
							],
							"path": [
								"api",
								"v1",
								"auth",
								"refresh"
							]
						}
					},
					"response": []
				},
				{
					"name": "Forgo Password Email",
					"request": {
						"method": "POST",
						"header": [],
						"body": {
							"mode": "raw",
							"raw": "{\r\n    \"email\": \"admin@admin.com\"\r\n}",
							"options": {
								"raw": {
									"language": "json"
								}
							}
						},
						"url": {
							"raw": "{{host}}/api/v1/auth/forgot-password",
							"host": [
								"{{host}}"
							],
							"path": [
								"api",
								"v1",
								"auth",
								"forgot-password"
							]
						}
					},
					"response": []
				},
				{
					"name": "Reset Password Email",
					"request": {
						"method": "POST",
						"header": [],
						"body": {
							"mode": "raw",
							"raw": "{\r\n    \"token\" : \"bc7c5c424c381f8fc8c022ccbb610487395d69e52d67e4054d9605e5a44137e6\",\r\n    \"email\" : \"admin@admin.com\",\r\n    \"password\": \"password\",\r\n    \"password_confirmation\": \"password\"\r\n}",
							"options": {
								"raw": {
									"language": "json"
								}
							}
						},
						"url": {
							"raw": "{{host}}/api/v1/auth/reset-password",
							"host": [
								"{{host}}"
							],
							"path": [
								"api",
								"v1",
								"auth",
								"reset-password"
							]
						}
					},
					"response": []
				}
			]
		},
		{
			"name": "Products",
			"item": [
				{
					"name": "Product List",
					"request": {
						"method": "GET",
						"header": [],
						"url": {
							"raw": "{{host}}/api/v1/products",
							"host": [
								"{{host}}"
							],
							"path": [
								"api",
								"v1",
								"products"
							]
						}
					},
					"response": []
				},
				{
					"name": "Product By Id",
					"request": {
						"method": "GET",
						"header": [],
						"url": {
							"raw": "{{host}}/api/v1/products/1",
							"host": [
								"{{host}}"
							],
							"path": [
								"api",
								"v1",
								"products",
								"1"
							]
						}
					},
					"response": []
				},
				{
					"name": "Store Product",
					"request": {
						"method": "POST",
						"header": [],
						"body": {
							"mode": "formdata",
							"formdata": [
								{
									"key": "name",
									"value": "New Product",
									"type": "text"
								},
								{
									"key": "sku",
									"value": "1234567891234",
									"type": "text"
								},
								{
									"key": "quantity",
									"value": "5",
									"type": "text"
								},
								{
									"key": "image",
									"type": "file",
									"src": []
								},
								{
									"key": "price",
									"value": "55.55",
									"type": "text"
								},
								{
									"key": "description",
									"value": "Lorem ipsum dolor sit amet, consectetur adipiscing elit. Curabitur mollis lectus nec nisl eleifend, et scelerisque leo blandit. Vestibulum malesuada nec purus et bibendum.",
									"type": "text"
								}
							],
							"options": {
								"raw": {
									"language": "json"
								}
							}
						},
						"url": {
							"raw": "{{host}}/api/v1/products",
							"host": [
								"{{host}}"
							],
							"path": [
								"api",
								"v1",
								"products"
							]
						}
					},
					"response": []
				},
				{
					"name": "Edit Product",
					"protocolProfileBehavior": {
						"disabledSystemHeaders": {}
					},
					"request": {
						"method": "POST",
						"header": [],
						"body": {
							"mode": "formdata",
							"formdata": [
								{
									"key": "_method",
									"value": "PUT",
									"type": "text"
								},
								{
									"key": "name",
									"value": "New Product Update",
									"type": "text"
								},
								{
									"key": "sku",
									"value": "1234567891234",
									"type": "text"
								},
								{
									"key": "quantity",
									"value": "5",
									"type": "text"
								},
								{
									"key": "image",
									"type": "file",
									"src": []
								},
								{
									"key": "price",
									"value": "25.30",
									"type": "text"
								},
								{
									"key": "description",
									"value": "Lorem ipsum dolor sit amet, consectetur adipiscing elit. Curabitur mollis lectus nec nisl eleifend, et scelerisque leo blandit. Vestibulum malesuada nec purus et bibendum.",
									"type": "text"
								}
							],
							"options": {
								"raw": {
									"language": "json"
								}
							}
						},
						"url": {
							"raw": "{{host}}/api/v1/products/1",
							"host": [
								"{{host}}"
							],
							"path": [
								"api",
								"v1",
								"products",
								"1"
							]
						}
					},
					"response": []
				},
				{
					"name": "Delete Product",
					"request": {
						"method": "DELETE",
						"header": [],
						"url": {
							"raw": "{{host}}/api/v1/products/1",
							"host": [
								"{{host}}"
							],
							"path": [
								"api",
								"v1",
								"products",
								"1"
							]
						}
					},
					"response": []
				}
			]
		},
		{
			"name": "Users",
			"item": [
				{
					"name": "User List",
					"request": {
						"method": "GET",
						"header": [],
						"url": {
							"raw": "{{host}}/api/v1/users",
							"host": [
								"{{host}}"
							],
							"path": [
								"api",
								"v1",
								"users"
							]
						}
					},
					"response": []
				},
				{
					"name": "User by Id",
					"request": {
						"method": "GET",
						"header": [],
						"url": {
							"raw": "{{host}}/api/v1/users/1",
							"host": [
								"{{host}}"
							],
							"path": [
								"api",
								"v1",
								"users",
								"1"
							]
						}
					},
					"response": []
				},
				{
					"name": "Edit User",
					"request": {
						"method": "POST",
						"header": [],
						"body": {
							"mode": "raw",
							"raw": "{\r\n    \"_method\" : \"PUT\",\r\n    \"name\" : \"User Admin 2\",\r\n    \"username\": \"admin\",\r\n    \"phone\": \"+503 7000-1111\",\r\n    \"birthday\": \"2000-01-01\"\r\n}",
							"options": {
								"raw": {
									"language": "json"
								}
							}
						},
						"url": {
							"raw": "{{host}}/api/v1/users/1",
							"host": [
								"{{host}}"
							],
							"path": [
								"api",
								"v1",
								"users",
								"1"
							]
						}
					},
					"response": []
				},
				{
					"name": "Delete user",
					"request": {
						"method": "DELETE",
						"header": [],
						"url": {
							"raw": "{{host}}/api/v1/products/2",
							"host": [
								"{{host}}"
							],
							"path": [
								"api",
								"v1",
								"products",
								"2"
							]
						}
					},
					"response": []
				}
			]
		}
	],
	"auth": {
		"type": "bearer",
		"bearer": [
			{
				"key": "token",
				"value": "{{token}}",
				"type": "string"
			}
		]
	},
	"event": [
		{
			"listen": "prerequest",
			"script": {
				"type": "text/javascript",
				"exec": [
					"var Header = require('postman-collection').Header",
					"pm.request.headers.add(new Header(\"Accept: application/json\"))",
					"pm.request.headers.add(new Header(\"Content-Type: application/json\"))"
				]
			}
		},
		{
			"listen": "test",
			"script": {
				"type": "text/javascript",
				"exec": [
					""
				]
			}
		}
	]
}